{
  "type": "service_account",
  "project_id": "marko-dev-platform",
  "private_key_id": "29352d121b02ac11121e2528d0cf30cb83384182",
  "private_key": "-----BEGIN PRIVATE KEY-----\nMIIEvgIBADANBgkqhkiG9w0BAQEFAASCBKgwggSkAgEAAoIBAQDovR+FmSSkr9Yh\n49L5eya5XGWtbyinpJDixIb2hcv0I8+m3ZhpvOrqQPBIUoxJ7dHSUlQ8k3fQkLrK\n37mk3t2hxY7gSKj6zbTVd+IfpQhJhBT4yR7fKfxXqAEAniC/NIYHdCBHpwBJ45UL\naillHB29pQ4fmRsasIrrSypZHyRoA3JG1tWrwNvD2GIiRivfP8TzwKc+g9MYAuXZ\nOejyFM1ZFR3ygN56mdlPwNR55uoy3vnnW8pMmxn7UKld5lp6sGoos7Y591q6qwd8\nSnOaU0FytwdRMJsJf14I4fYzJwXvziwONKkbMKSD08zgoEamTT1ujVZLgXdEBy2T\nidl/VRfDAgMBAAECggEABKJQLUMb2V80HPxuy0KtX89Cdp4TsEBufBcCqVTuEMau\nKa0YdEtR+BqvGuZXeCXELqZiAMsrSkIfd5uilCRPds5t5lkia2ZkikP26Vj9XcCQ\nZ4jsB71Lxdw8ABM/i3itwU2jUoBPDEMvFaLMmTOvaelbHlW+yU/1LCZhsC2WqXvi\nWmNxuAN+uCuX3YRnaX2Z990bOZy86p7oRFiFxrFzgk2bKRQpLsVPU1fatyjirUbR\nB4DHn6Occq6jq/2cG67ey3NTUAxjoTC54xBJH3WLd85Peo4xVkcPiE9NmHqgwinT\n2+iT2uEaeJtzZGrx62vuadta82xDOItE3AAy0ONpnQKBgQD/UruEaPWacxnXKxfB\n6MwCghaNk7SiP5dbIRPOPRyezMFpB409Y3cb8aQaHUTnSpk5sr2iKMaKUzZay0S1\nLtnu4ZpMGeh+gXCSs6V/hCpKIgpJzpZp2uk+Ox3+xukRK/tl8IrRCOhP6UJwdQIH\ndTd/eWMZe+BPmsvrKcEMlD23RwKBgQDpWxB8liZRLIG4C+eB5e5NzND8bqWnMQMO\nkF1neHECyd3n1JUimsa//G+zv2k/jhuW+8gYexYCszWQ23petfUwStKjg5nrZH7Z\nqdRLk17pRy8HYUa8sag64gY3de3Jw1/2fNg1mcFntcEryuq2PhT4UxqUoIr1PZZn\n2dpL+CvRpQKBgQCxMg63v0wsi5M0dFDBn7nuR7A1Q3xKWg3GDfe720fAoePc64PH\nRf+E4jf8c7G9P1WF6JmZL+lSWJvReV7Oy5wuIF5AUH69RUIGXi0OiX/8ARHY1Uoo\nXuge61JO3mckJr0Lq1v75M2tn/ofJ+VnnZ8NlgYDyqgLNygspca33y3RwwKBgCuM\nCOmXA5OGYLa90fgVtoDiReW1qEgpB08CdcvHWB+TGEwZCbOpeol9TEMY50Uq+c8V\nMWQQJC1g0BA2RQHDpvvaGrDU8DZTTLDF1o479CxIUmhoKNExvhku8MYMxdEvGotf\nBOILzWHTMzc+6MoVj8g/iehOhV/6nETJDMm8iEDZAoGBAIk8yhxVgUzkRT0eWLbj\nYJ2BIkpl1rIj5TcqyJ0Rw0clr+Er48/56a3ltGm4WBrrrIKbNUyyLanLEIFvUzW6\n1zL2UwWLpqZBCJ5BOtJZ50GRm3B7gZjXjDv5B9FXsDxA0yq8c/5hZvoT22ISE4sV\nc2sMpqTEDdKX+DM+oini+ngi\n-----END PRIVATE KEY-----\n",
  "client_email": "provisioner@marko-dev-platform.iam.gserviceaccount.com",
  "client_id": "111840283383655187872",
  "auth_uri": "https://accounts.google.com/o/oauth2/auth",
  "token_uri": "https://oauth2.googleapis.com/token",
  "auth_provider_x509_cert_url": "https://www.googleapis.com/oauth2/v1/certs",
  "client_x509_cert_url": "https://www.googleapis.com/robot/v1/metadata/x509/provisioner%40marko-dev-platform.iam.gserviceaccount.com"
}
